Determining if the pthread_create exist failed with the following output:
Change Dir: C:/Users/seone/Desktop/CSC 2111/Lab11/build/CMakeFiles/CMakeTmp

Run Build Command:"C:/cygwin64/bin/make.exe" "cmTC_e6af3/fast"
/usr/bin/make -f CMakeFiles/cmTC_e6af3.dir/build.make CMakeFiles/cmTC_e6af3.dir/build
make[1]: Entering directory '/cygdrive/c/Users/seone/Desktop/CSC 2111/Lab11/build/CMakeFiles/CMakeTmp'
Building C object CMakeFiles/cmTC_e6af3.dir/CheckSymbolExists.c.obj
C:/MinGW/bin/cc.exe     -o CMakeFiles/cmTC_e6af3.dir/CheckSymbolExists.c.obj   -c "C:/Users/seone/Desktop/CSC 2111/Lab11/build/CMakeFiles/CMakeTmp/CheckSymbolExists.c"
Linking C executable cmTC_e6af3.exe
"C:/Program Files (x86)/CMake/bin/cmake.exe" -E remove -f CMakeFiles/cmTC_e6af3.dir/objects.a
C:/MinGW/bin/ar.exe cr CMakeFiles/cmTC_e6af3.dir/objects.a @CMakeFiles/cmTC_e6af3.dir/objects1.rsp
C:/MinGW/bin/cc.exe       -Wl,--whole-archive CMakeFiles/cmTC_e6af3.dir/objects.a -Wl,--no-whole-archive  -o cmTC_e6af3.exe -Wl,--out-implib,libcmTC_e6af3.dll.a -Wl,--major-image-version,0,--minor-image-version,0 @CMakeFiles/cmTC_e6af3.dir/linklibs.rsp
CMakeFiles/cmTC_e6af3.dir/objects.a(CheckSymbolExists.c.obj):CheckSymbolExists.c:(.text+0x16): undefined reference to `_imp__pthread_create'
collect2.exe: error: ld returned 1 exit status
CMakeFiles/cmTC_e6af3.dir/build.make:98: recipe for target 'cmTC_e6af3.exe' failed
make[1]: *** [cmTC_e6af3.exe] Error 1
make[1]: Leaving directory '/cygdrive/c/Users/seone/Desktop/CSC 2111/Lab11/build/CMakeFiles/CMakeTmp'
Makefile:126: recipe for target 'cmTC_e6af3/fast' failed
make: *** [cmTC_e6af3/fast] Error 2

File C:/Users/seone/Desktop/CSC 2111/Lab11/build/CMakeFiles/CMakeTmp/CheckSymbolExists.c:
/* */
#include <pthread.h>

int main(int argc, char** argv)
{
  (void)argv;
#ifndef pthread_create
  return ((int*)(&pthread_create))[argc];
#else
  (void)argc;
  return 0;
#endif
}

Determining if the function pthread_create exists in the pthreads failed with the following output:
Change Dir: C:/Users/seone/Desktop/CSC 2111/Lab11/build/CMakeFiles/CMakeTmp

Run Build Command:"C:/cygwin64/bin/make.exe" "cmTC_83b3e/fast"
/usr/bin/make -f CMakeFiles/cmTC_83b3e.dir/build.make CMakeFiles/cmTC_83b3e.dir/build
make[1]: Entering directory '/cygdrive/c/Users/seone/Desktop/CSC 2111/Lab11/build/CMakeFiles/CMakeTmp'
Building C object CMakeFiles/cmTC_83b3e.dir/CheckFunctionExists.c.obj
C:/MinGW/bin/cc.exe    -DCHECK_FUNCTION_EXISTS=pthread_create   -o CMakeFiles/cmTC_83b3e.dir/CheckFunctionExists.c.obj   -c "C:/Program Files (x86)/CMake/share/cmake-3.4/Modules/CheckFunctionExists.c"
Linking C executable cmTC_83b3e.exe
"C:/Program Files (x86)/CMake/bin/cmake.exe" -E remove -f CMakeFiles/cmTC_83b3e.dir/objects.a
C:/MinGW/bin/ar.exe cr CMakeFiles/cmTC_83b3e.dir/objects.a @CMakeFiles/cmTC_83b3e.dir/objects1.rsp
C:/MinGW/bin/cc.exe   -DCHECK_FUNCTION_EXISTS=pthread_create    -Wl,--whole-archive CMakeFiles/cmTC_83b3e.dir/objects.a -Wl,--no-whole-archive  -o cmTC_83b3e.exe -Wl,--out-implib,libcmTC_83b3e.dll.a -Wl,--major-image-version,0,--minor-image-version,0 @CMakeFiles/cmTC_83b3e.dir/linklibs.rsp
c:/mingw/bin/../lib/gcc/mingw32/4.8.1/../../../../mingw32/bin/ld.exe: cannot find -lpthreads
collect2.exe: error: ld returned 1 exit status
CMakeFiles/cmTC_83b3e.dir/build.make:98: recipe for target 'cmTC_83b3e.exe' failed
make[1]: *** [cmTC_83b3e.exe] Error 1
make[1]: Leaving directory '/cygdrive/c/Users/seone/Desktop/CSC 2111/Lab11/build/CMakeFiles/CMakeTmp'
Makefile:126: recipe for target 'cmTC_83b3e/fast' failed
make: *** [cmTC_83b3e/fast] Error 2


