digraph "People::get"
{
  edge [fontname="Helvetica",fontsize="10",labelfontname="Helvetica",labelfontsize="10"];
  node [fontname="Helvetica",fontsize="10",shape=record];
  rankdir="LR";
  Node1 [label="People::get",height=0.2,width=0.4,color="black", fillcolor="grey75", style="filled", fontcolor="black"];
  Node1 -> Node2 [color="midnightblue",fontsize="10",style="solid"];
  Node2 [label="Person::equal",height=0.2,width=0.4,color="black", fillcolor="white", style="filled",URL="$class_person.html#a5f9ed556fa62994a17f11c013c5d8424"];
}
