digraph "Person::equal"
{
  edge [fontname="Helvetica",fontsize="10",labelfontname="Helvetica",labelfontsize="10"];
  node [fontname="Helvetica",fontsize="10",shape=record];
  rankdir="LR";
  Node1 [label="Person::equal",height=0.2,width=0.4,color="black", fillcolor="grey75", style="filled", fontcolor="black"];
  Node1 -> Node2 [dir="back",color="midnightblue",fontsize="10",style="solid"];
  Node2 [label="People::get",height=0.2,width=0.4,color="black", fillcolor="white", style="filled",URL="$class_people.html#a91e7857b766c805faa94fa9908b3c60a"];
}
